<?xml version="1.0" encoding="UTF-8"?>
<svg width="467px" height="250px" viewBox="0 0 467 250" version="1.1" xmlns="http://www.w3.org/2000/svg" xmlns:xlink="http://www.w3.org/1999/xlink">
    <!-- Generator: Sketch 40.3 (33839) - http://www.bohemiancoding.com/sketch -->
    <title>ContextSwitch</title>
    <desc>Created with Sketch.</desc>
    <defs></defs>
    <g id="ContextSwitching" stroke="none" stroke-width="1" fill="none" fill-rule="evenodd">
        <path d="M210.5,71.5 L310.5,100.5" id="Line" stroke="#000000" stroke-linecap="square"></path>
        <path id="Line-decoration-1" d="M299.291792,100.373223 L310.5,100.5 L300.962939,94.6106485" stroke="#000000" stroke-linecap="square"></path>
        <path d="M307.5,102.5 L307.5,132.5" id="Line" stroke="#000000" stroke-linecap="square"></path>
        <path id="Line-decoration-1" d="M304.5,121.7 L307.5,132.5 L310.5,121.7" stroke="#000000" stroke-linecap="square"></path>
        <path d="M305.5,135.5 L209.5,169.5" id="Line" stroke="#000000" stroke-linecap="square"></path>
        <path id="Line-decoration-1" d="M218.678833,163.066569 L209.5,169.5 L220.681915,168.722333" stroke="#000000" stroke-linecap="square"></path>
        <path d="M209.5,172.5 L209.5,199.5" id="Line" stroke="#000000" stroke-linecap="square"></path>
        <path id="Line-decoration-1" d="M206.5,188.7 L209.5,199.5 L212.5,188.7" stroke="#000000" stroke-linecap="square"></path>
        <path d="M173.5,34.5 L375.5,34.5" id="Line" stroke="#979797" stroke-linecap="square"></path>
        <path d="M173.5,135.5 L371.5,135.5" id="Line" stroke="#979797" stroke-linecap="square"></path>
        <path d="M173.5,200.5 L403.502174,200.5" id="Line" stroke="#979797" stroke-linecap="square"></path>
        <path d="M173.5,170.5 L370.5,170.5" id="Line" stroke="#979797" stroke-linecap="square"></path>
        <path d="M173.5,102.5 L375.5,102.5" id="Line" stroke="#979797" stroke-linecap="square"></path>
        <path d="M173.5,69.5 L376.5,69.5" id="Line" stroke="#979797" stroke-linecap="square"></path>
        <path d="M258.5,2.5 L258.5,244.551647" id="Line" stroke="#979797" stroke-linecap="square" stroke-dasharray="5"></path>
        <text id="ProcessA" font-family="Helvetica-Oblique, Helvetica" font-size="14" font-style="italic" font-weight="normal" fill="#000000">
            <tspan x="173" y="15">ProcessA</tspan>
        </text>
        <text id="ProcessB" font-family="Helvetica-Oblique, Helvetica" font-size="14" font-style="italic" font-weight="normal" fill="#000000">
            <tspan x="289" y="15">ProcessB</tspan>
        </text>
        <path d="M23.5,0.5 L23.5,248.663253" id="Line" stroke="#979797" stroke-linecap="square"></path>
        <path id="Line-decoration-1" d="M20.5,237.863253 L23.5,248.663253 L26.5,237.863253" stroke="#979797" stroke-linecap="square"></path>
        <text id="Time" transform="translate(5.500000, 109.500000) rotate(-90.000000) translate(-5.500000, -109.500000) " font-family="Helvetica-Oblique, Helvetica" font-size="14" font-style="italic" font-weight="normal" fill="#000000">
            <tspan x="-10" y="115">Time</tspan>
        </text>
        <text id="read" font-family="Helvetica-Oblique, Helvetica" font-size="14" font-style="italic" font-weight="normal" fill="#000000">
            <tspan x="81" y="75">read</tspan>
        </text>
        <text id="Disk-interupt" font-family="Helvetica-Oblique, Helvetica" font-size="14" font-style="italic" font-weight="normal" fill="#000000">
            <tspan x="82.7792969" y="138">Disk </tspan>
            <tspan x="63.3037109" y="155">interupt</tspan>
        </text>
        <text id="Return-from-read" font-family="Helvetica-Oblique, Helvetica" font-size="14" font-style="italic" font-weight="normal" fill="#000000">
            <tspan x="67.9794922" y="173">Return</tspan>
            <tspan x="50.0898438" y="190">from read</tspan>
        </text>
        <path d="M117.5,69.5 L166.5,69.5" id="Line" stroke="#979797" stroke-linecap="square" stroke-dasharray="5"></path>
        <path id="Line-decoration-1" d="M155.7,72.5 L166.5,69.5 L155.7,66.5" stroke="#979797" stroke-linecap="square" stroke-dasharray="5"></path>
        <path d="M117.5,170.5 L166.5,170.5" id="Line" stroke="#979797" stroke-linecap="square" stroke-dasharray="5"></path>
        <path id="Line-decoration-1" d="M155.7,173.5 L166.5,170.5 L155.7,167.5" stroke="#979797" stroke-linecap="square" stroke-dasharray="5"></path>
        <path d="M117.5,135.5 L166.5,135.5" id="Line" stroke="#979797" stroke-linecap="square" stroke-dasharray="5"></path>
        <path id="Line-decoration-1" d="M155.7,138.5 L166.5,135.5 L155.7,132.5" stroke="#979797" stroke-linecap="square" stroke-dasharray="5"></path>
        <text id="User-code" font-family="Helvetica-Oblique, Helvetica" font-size="14" font-style="italic" font-weight="normal" fill="#000000">
            <tspan x="320" y="56">User code</tspan>
        </text>
        <text id="User-code" font-family="Helvetica-Oblique, Helvetica" font-size="14" font-style="italic" font-weight="normal" fill="#000000">
            <tspan x="320" y="125">User code</tspan>
        </text>
        <text id="Kernal-code" font-family="Helvetica-Oblique, Helvetica" font-size="14" font-style="italic" font-weight="normal" fill="#000000">
            <tspan x="319" y="90">Kernal code</tspan>
        </text>
        <text id="Context-switch" font-family="Helvetica" font-size="14" font-weight="normal" fill="#000000">
            <tspan x="419" y="85">Context</tspan>
            <tspan x="419" y="102">switch</tspan>
        </text>
        <text id="Kernal-code" font-family="Helvetica-Oblique, Helvetica" font-size="14" font-style="italic" font-weight="normal" fill="#000000">
            <tspan x="320" y="156">Kernal code</tspan>
        </text>
        <text id="User-code" font-family="Helvetica-Oblique, Helvetica" font-size="14" font-style="italic" font-weight="normal" fill="#000000">
            <tspan x="320" y="189">User code</tspan>
        </text>
        <text id="}" font-family="Helvetica-Light, Helvetica" font-size="24" font-weight="300" fill="#000000">
            <tspan x="403" y="165">}</tspan>
        </text>
        <text id="Context-switch" font-family="Helvetica" font-size="14" font-weight="normal" fill="#000000">
            <tspan x="419" y="156">Context</tspan>
            <tspan x="419" y="173">switch</tspan>
        </text>
        <text id="}" font-family="Helvetica-Light, Helvetica" font-size="24" font-weight="300" fill="#000000">
            <tspan x="404" y="93">}</tspan>
        </text>
        <path d="M211.5,40.5 L211.5,66.5" id="Line" stroke="#000000" stroke-linecap="square"></path>
        <path id="Line-decoration-1" d="M208.5,55.7 L211.5,66.5 L214.5,55.7" stroke="#000000" stroke-linecap="square"></path>
    </g>
</svg>